Organismes,Region,Departement,Ville,Filiere,Telephone,Adresse mail,Site internet
APPUY-CREATEURS,AUVERGNE RHONE ALPES,"03,15,63",CLERMONT-FERRAND,Généraliste,04 73 93 02 29,contact@appuy-createurs.fr,www.appuy-createurs.fr
VECTEUR ACTIVITES,AUVERGNE RHONE ALPES,38,GRENOBLE,Généraliste,04 76 47 00 16,contact@vecteuractivites.com,www.vecteuractivites.com
TALENTS CROISES,AUVERGNE RHONE ALPES,42,FIRMINY,Généraliste,04 77 10 19 87,contact@talentscroises.fr,www.talentscroises.fr
APPUY DOM,AUVERGNE RHONE ALPES,63,ROMAGNAT,Services à la personne,04 73 93 02 29,contact@appuy-dom.fr,www.appuy-createurs.fr
CALAD'IMPULSION,AUVERGNE RHONE ALPES,69,VILLEFRANCHE SUR SAONE,Généraliste,04 74 02 53 53,contact@calad-impulsion.fr,www.calad-impulsion.fr
ESCALE CREATION,AUVERGNE RHONE ALPES,69,SAINT FONS,Généraliste,04 78 70 14 69,contact@escalecreation.fr,www.escalecreation.fr
GRAINES DE SOL,AUVERGNE RHONE ALPES,69,PIERRE BENITE,Généraliste,04 78 15 92 32,contact@grainesdesol.fr,www.grainesdesol.fr
AMETIS,AUVERGNE RHONE ALPES,74,ANNECY,Généraliste,04 50 45 93 24,ametis@ametis.coop,www.ametis.coop
ESS'AIN *,AUVERGNE RHONE ALPES,01,BOURG EN BRESSE,Généraliste,04 74 22 22 63,contact@essain.fr,www.essain.fr
COOPENBAT,BOURGOGNE FRANCHE COMTE,21,DIJON,Bâtiment,03 80 73 11 81,contact@caebourgogne.fr,https://caebourgogne.fr/
ENVOL (L'),BOURGOGNE FRANCHE COMTE,"21,89",DIJON,Généraliste,03 80 73 11 81,contact@caebourgogne.fr,https://caebourgogne.fr/
BATICOOP,BOURGOGNE FRANCHE COMTE,"25,70,90",MONTBELIARD,Bâtiment,03 81 95 48 91,contact@baticoop.pro,http://baticoop.pro/
COOPILOTE,BOURGOGNE FRANCHE COMTE,"25,70,90",MONTBELIARD,Généraliste,03 81 95 48 91,contact@coopilote.com,www.coopilote.com
FORMACOOP,BOURGOGNE FRANCHE COMTE,"25,67,68",MONTBELIARD,Formation,03 81 95 48 91,contact@coopilote.com,www.formacoop.pro
SVP,BOURGOGNE FRANCHE COMTE,"25,70,90",MONTBELIARD,Services à la personne,03 81 95 48 91,contact@coopilote.com,www.coopilote.com
AMEIZING,BRETAGNE,22,PLERIN,Bureau d'étude,02 96 52 19 69,https://www.cae22.coop/contact.html,https://www.cae22.coop/ameizing.html
AVANT-PREMIERES,BRETAGNE,22,PLERIN,Généraliste,02 96 52 19 69,contact@avant-premieres.coop,www.cae22.coop
BATI-PREMIERES,BRETAGNE,22,PLERIN,Bâtiment,02 96 52 19 69,contact@bati-premieres.coop,www.cae22.coop
COOP DOMI OUEST,BRETAGNE,"22,29,35,56",LORIENT,Services à la personne,02 97 65 89 49,coopdomiouest@orange.fr,http://cae35.coop/
CHRYSALIDE,BRETAGNE,29,QUIMPER,Généraliste,02 98 66 09 99,contact@cae29.coop,www.cae29.coop
PENN AR BÂT,BRETAGNE,29,BREST,Bâtiment,,pennarbat@cae29.coop,www.cae29.coop
FILEO BATIMENT,BRETAGNE,56,LORIENT,Bâtiment,02 97 86 32 82,contact@fileogroupe.coop,www.fileogroupe.coop
FILEO CONSEIL,BRETAGNE,56,LORIENT,Généraliste,02 97 65 16 71,contact@fileogroupe.coop,www.fileogroupe.coop
ODYSSEE CREATION,CENTRE VAL DE LOIRE,"18,37,41,45",ROMORANTIN LANTHENAY,Généraliste,02 54 97 76 16,contact@odyssee-creation.coop,http://www.odyssee-creation.coop/
CIAP CENTRE VAL-DE-LOIRE,CENTRE VAL DE LOIRE,41,BLOIS,Agricole,02 54 43 32 94,contact@ciap-cvl.fr,
A PROVA,CORSE,20,AJACCIO,Généraliste,04 95 10 00 22,contact@aprova.fr,http://www.aprova.fr/
SET UP,GRAND EST,51,REIMS,Généraliste,,contact@setup-cae.fr,http://setup-cae.fr
CAP ENTREPRENDRE,GRAND EST,"54,57",FORBACH,Généraliste,03 87 92 73 44,contact@capentreprendre.fr,www.capentreprendre.fr
ANTIGONE,GRAND EST,"67,68",STRASBOURG,Généraliste,03 88 44 50 99,contact@antigone.coop,www.antigone.coop
ARTENREEL,GRAND EST,"67,68",STRASBOURG,Culture,03 88 44 50 99,cooperative@artenreel.com,www.artenreel.com
COOPENATES,GRAND EST,"67,68",STRASBOURG,Services à la personne,03 88 44 96 89,contact@coopenates.com,www.coopenates.com
ALTERNA,HAUTS DE France,"02,59,62,80",LILLE,Services à la personne,03 21 23 43 13,contact@alterna-coop.coop,www.grandsensemble.org
GRANDS ENSEMBLE,HAUTS DE France,"02,59,62,80",LILLE,Généraliste,03 20 95 70 83,contact@grandsensemble.org,www.grandsensemble.org
ALTER-BATIR,ILE-DE-France,75,PARIS,Bâtiment,01 42 01 89 59,contact@alter-batir.fr,www.alterbatir.fr
CLARA,ILE-DE-France,75,PARIS,Culture,01 77 72 30 30,https://www.cae-clara.fr/contact/,www.cae-clara.fr
CREACOOP 14,NORMANDIE,14,CAEN,Généraliste,02 31 84 52 61,cae@creacoop14.fr,https://www.creacoop14.fr/
CRESCENDO,NORMANDIE,"50,61",FLERS,Généraliste,02 33 64 43 42,crescendo.cae@orange.fr,http://crescendo-cae.fr/
COOPERER POUR FORMER,NORMANDIE,61,FLERS,Formation,02 33 64 43 42,,
RHIZOME,NORMANDIE,61,ESSAY,Agricole,07 87 45 65 87,contact@cae-rhizome.com,https://www.cae-rhizome.com/
SCOP 276,NORMANDIE,76,ROUEN,Généraliste,02 76 08 79 61,gerance@scop276.coop,www.scop276.coop
COOP & BAT,NOUVELLE AQUITAINE,"24,33",LORMONT,Bâtiment,05 56 31 04 77,contact@coopetbat.fr,http://www.coopetbat.coop/
COOP'ALPHA,NOUVELLE AQUITAINE,24 - 33,LORMONT,Généraliste,05 56 74 26 16,contact@coopalpha.coop,http://www.coopalpha.coop/
ACEASCOP-FORMASCOPE,NOUVELLE AQUITAINE,"79,86",CHATELLERAULT,Généraliste,05 49 23 50 81,contact@aceascop.com,www.aceascop.com
ALTERBATIVE (L'),NOUVELLE AQUITAINE,"79,86",POITIERS,Bâtiment,05 49 46 93 00,contact@alterbative.fr,www.alterbative.fr
CONSORTIUM COOPERATIVE,NOUVELLE AQUITAINE,86,LIGUGE,Culture,,http://consortium-culture.coop/contact/,http://consortium-culture.coop/
SCOPADOM,NOUVELLE AQUITAINE,86,CHATELLERAULT,Services à la personne,05 49 23 50 81,contact@aceascop.com,http://aceascop.com
MAISON DE L'INITIATIVE,OCCITANIE,"09,31",TOULOUSE,Généraliste,05 34 63 81 10,mi31@maisoninit.coop,www.maison-initiative.org
LE COMPTOIR DES ENTREPRENEURS,OCCITANIE,11,NARBONNE,Généraliste,,a.lefouiller@lecomptoirdesentrepreneurs.fr,Facebook => LeComptoirdesEntrepreneurs
MINE DE TALENTS,OCCITANIE,"30,48",ALES,Généraliste,04 66 56 51 26,contact@minedetalents.com,www.minedetalents.com
BGE COOP,OCCITANIE,31,TOULOUSE,Généraliste,05 61 61 45 00,contact@bgecoop.fr,http://www.bgecoop.fr
COOP'ACTION,OCCITANIE,31,RAMONVILLE ST AGNE,Bâtiment,05 62 19 11 06,coopaction@coopaction.fr,http://www.coopaction.com
KANOPE,OCCITANIE,"31,32,65",AUCH,Généraliste,05 62 07 38 08,contact@kanope-scae.com,www.kanope-scae.com
PERSPECTIVES,OCCITANIE,66,PERPIGNAN,Généraliste,04 68 34 45 98,info@perspectives.coop,www.perspectives.coop
VIVELA,OCCITANIE,66,"PERPIGNAN NARBONNE",Services à la personne,"04 68 83 87 34(Perpignan), 04 11 23 22 63(Narbonne)",info@perspectives.coop,http://vivela.fr/
REGABAT,OCCITANIE,81,CASTRES,Bâtiment,05 63 62 82 84,contact@caetarn.fr,www.regabat.fr
REGATE,OCCITANIE,81,CASTRES,Généraliste,05 63 62 82 84,contact@caetarn.fr,www.regate.fr
OZON,OCCITANIE,82,SEPTFONDS,Généraliste,05 63 26 03 56,ozon@ozon-cooperer.org,www.ozon-cooperer.org
COOP UNION,OUTRE-MER,97,SAINT PAUL,Généraliste,02 62 24 41 79,"energies-reunion@orange,fr",www.dynamiques-services.fr
DYNAMIQUES SERVICES,OUTRE-MER,97,SAINT PAUL,Services à la personne,02 62 24 41 79,"dynamiques-services@orange,fr",www.dynamiques-services.fr
EDEA,OUTRE-MER,97,LAMENTIN,Généraliste,05 96 61 38 28,edea.972@orange.fr,http://www.edeamartinique.com/
SECCOIA*,OUTRE-MER,97,KOUROU,Généraliste,,dominique.avisse@gmail.com,
ACADEMIE POUR L'EGALITE DES CHANCES*,OUTRE-MER,97,LA POSSESSION,Généraliste,06 92 67 21 07,academieegalitedeschances@aec.re,
BATICREATEURS 44,PAYS DE LA LOIRE,44,COUERON,Bâtiment,02 40 89 16 15,accueil@baticreateurs44.fr,www.baticreateurs44.fr
CIAP 44,PAYS DE LA LOIRE,44,NANTES,Agricole,,contact@ciap-pdl.fr,http://www.reneta.fr/CIAP-44
OUVRE-BOITES 44 (L'),PAYS DE LA LOIRE,44,SAINT HERBLAIN,Généraliste,02 28 21 65 10,contact@ouvre-boites44.coop,www.ouvre-boites44.coop
OZ,PAYS DE LA LOIRE,"44,49",ANGERS,Culture,02 52 35 05 26,contact@oz-coop.fr,www.oz-coop.fr
COOP CHEZ VOUS,PAYS DE LA LOIRE,"44,53",SAINT HERBLAIN,Services à la personne,02 28 07 77 07,contact@coopchezvous.net,www.coopchezvous.net
CDP 49,PAYS DE LA LOIRE,49,ANGERS,Généraliste,02 41 34 94 02,infos@coupdepouce49.fr,www.coupdepouce49.fr
COODEMARRAGE.53,PAYS DE LA LOIRE,53,CHANGE,Généraliste,02 43 56 69 25,contact@coodemarrage.com,http://www.coodemarrage.com/
COODYSSEE,PROVENCE ALPES COTE D'AZUR,"05,16,74",GAP,Généraliste,04 92 49 53 10,contact@coodyssee.fr,http://www.coodyssee.fr/
MEDINSCOP,PROVENCE ALPES COTE D'AZUR,13,MARSEILLE,Généraliste,04 91 59 82 80,contact@medinscop.com,http://medinscop.com/
